%YAML 1.1
%TAG !u! tag:unity3d.com,2011:
--- !u!1001 &7840543336247164678
PrefabInstance:
  m_ObjectHideFlags: 0
  serializedVersion: 2
  m_Modification:
    m_TransformParent: {fileID: 0}
    m_Modifications:
    - target: {fileID: -9145498732564985696, guid: 3883a3f3524fd514c9f42771119891ef, type: 3}
      propertyPath: m_Materials.Array.data[0]
      value: 
      objectReference: {fileID: 10754, guid: 0000000000000000f000000000000000, type: 0}
    - target: {fileID: -8623029978156151478, guid: 3883a3f3524fd514c9f42771119891ef, type: 3}
      propertyPath: m_Bounds.m_Center.x
      value: 0.28483197
      objectReference: {fileID: 0}
    - target: {fileID: -8623029978156151478, guid: 3883a3f3524fd514c9f42771119891ef, type: 3}
      propertyPath: m_Bounds.m_Center.y
      value: 1.7062742
      objectReference: {fileID: 0}
    - target: {fileID: -8623029978156151478, guid: 3883a3f3524fd514c9f42771119891ef, type: 3}
      propertyPath: m_Bounds.m_Center.z
      value: 1.8127149e-15
      objectReference: {fileID: 0}
    - target: {fileID: -8623029978156151478, guid: 3883a3f3524fd514c9f42771119891ef, type: 3}
      propertyPath: m_Bounds.m_Extent.x
      value: 0.41500026
      objectReference: {fileID: 0}
    - target: {fileID: -8623029978156151478, guid: 3883a3f3524fd514c9f42771119891ef, type: 3}
      propertyPath: m_Bounds.m_Extent.y
      value: 1.7062742
      objectReference: {fileID: 0}
    - target: {fileID: -8623029978156151478, guid: 3883a3f3524fd514c9f42771119891ef, type: 3}
      propertyPath: m_Bounds.m_Extent.z
      value: 4.6419083e-14
      objectReference: {fileID: 0}
    - target: {fileID: -8188576613276992960, guid: 3883a3f3524fd514c9f42771119891ef, type: 3}
      propertyPath: m_Materials.Array.data[0]
      value: 
      objectReference: {fileID: 10754, guid: 0000000000000000f000000000000000, type: 0}
    - target: {fileID: -7875563735573259096, guid: 3883a3f3524fd514c9f42771119891ef, type: 3}
      propertyPath: m_Bounds.m_Center.x
      value: 0.284832
      objectReference: {fileID: 0}
    - target: {fileID: -7875563735573259096, guid: 3883a3f3524fd514c9f42771119891ef, type: 3}
      propertyPath: m_Bounds.m_Center.y
      value: 2.6100142
      objectReference: {fileID: 0}
    - target: {fileID: -7875563735573259096, guid: 3883a3f3524fd514c9f42771119891ef, type: 3}
      propertyPath: m_Bounds.m_Center.z
      value: -8.970608e-19
      objectReference: {fileID: 0}
    - target: {fileID: -7875563735573259096, guid: 3883a3f3524fd514c9f42771119891ef, type: 3}
      propertyPath: m_Bounds.m_Extent.x
      value: 0.25500017
      objectReference: {fileID: 0}
    - target: {fileID: -7875563735573259096, guid: 3883a3f3524fd514c9f42771119891ef, type: 3}
      propertyPath: m_Bounds.m_Extent.y
      value: 0.22949505
      objectReference: {fileID: 0}
    - target: {fileID: -7875563735573259096, guid: 3883a3f3524fd514c9f42771119891ef, type: 3}
      propertyPath: m_Bounds.m_Extent.z
      value: 4.0766658e-16
      objectReference: {fileID: 0}
    - target: {fileID: -7804724951819970168, guid: 3883a3f3524fd514c9f42771119891ef, type: 3}
      propertyPath: m_Materials.Array.data[0]
      value: 
      objectReference: {fileID: 10754, guid: 0000000000000000f000000000000000, type: 0}
    - target: {fileID: -7587938170188245960, guid: 3883a3f3524fd514c9f42771119891ef, type: 3}
      propertyPath: m_Materials.Array.data[0]
      value: 
      objectReference: {fileID: 10754, guid: 0000000000000000f000000000000000, type: 0}
    - target: {fileID: -7556034755651464997, guid: 3883a3f3524fd514c9f42771119891ef, type: 3}
      propertyPath: m_Bounds.m_Center.x
      value: 0.28323996
      objectReference: {fileID: 0}
    - target: {fileID: -7556034755651464997, guid: 3883a3f3524fd514c9f42771119891ef, type: 3}
      propertyPath: m_Bounds.m_Center.y
      value: 2.6108031
      objectReference: {fileID: 0}
    - target: {fileID: -7556034755651464997, guid: 3883a3f3524fd514c9f42771119891ef, type: 3}
      propertyPath: m_Bounds.m_Center.z
      value: 1.8187884e-12
      objectReference: {fileID: 0}
    - target: {fileID: -7556034755651464997, guid: 3883a3f3524fd514c9f42771119891ef, type: 3}
      propertyPath: m_Bounds.m_Extent.x
      value: 0.18752009
      objectReference: {fileID: 0}
    - target: {fileID: -7556034755651464997, guid: 3883a3f3524fd514c9f42771119891ef, type: 3}
      propertyPath: m_Bounds.m_Extent.z
      value: 2.137098e-14
      objectReference: {fileID: 0}
    - target: {fileID: -7458577882359843284, guid: 3883a3f3524fd514c9f42771119891ef, type: 3}
      propertyPath: m_Materials.Array.data[0]
      value: 
      objectReference: {fileID: 10754, guid: 0000000000000000f000000000000000, type: 0}
    - target: {fileID: -7023750285976385584, guid: 3883a3f3524fd514c9f42771119891ef, type: 3}
      propertyPath: m_Bounds.m_Center.x
      value: 0.4345953
      objectReference: {fileID: 0}
    - target: {fileID: -7023750285976385584, guid: 3883a3f3524fd514c9f42771119891ef, type: 3}
      propertyPath: m_Bounds.m_Center.y
      value: 2.4483461
      objectReference: {fileID: 0}
    - target: {fileID: -7023750285976385584, guid: 3883a3f3524fd514c9f42771119891ef, type: 3}
      propertyPath: m_Bounds.m_Center.z
      value: -0.030000012
      objectReference: {fileID: 0}
    - target: {fileID: -7023750285976385584, guid: 3883a3f3524fd514c9f42771119891ef, type: 3}
      propertyPath: m_Bounds.m_Extent.x
      value: 0.30200005
      objectReference: {fileID: 0}
    - target: {fileID: -7023750285976385584, guid: 3883a3f3524fd514c9f42771119891ef, type: 3}
      propertyPath: m_Bounds.m_Extent.y
      value: 0.20423996
      objectReference: {fileID: 0}
    - target: {fileID: -6150491843757212119, guid: 3883a3f3524fd514c9f42771119891ef, type: 3}
      propertyPath: m_Bounds.m_Center.x
      value: 0.28490013
      objectReference: {fileID: 0}
    - target: {fileID: -6150491843757212119, guid: 3883a3f3524fd514c9f42771119891ef, type: 3}
      propertyPath: m_Bounds.m_Center.y
      value: 2.6107883
      objectReference: {fileID: 0}
    - target: {fileID: -6150491843757212119, guid: 3883a3f3524fd514c9f42771119891ef, type: 3}
      propertyPath: m_Bounds.m_Center.z
      value: 1.8189903e-12
      objectReference: {fileID: 0}
    - target: {fileID: -6150491843757212119, guid: 3883a3f3524fd514c9f42771119891ef, type: 3}
      propertyPath: m_Bounds.m_Extent.x
      value: 0.30493015
      objectReference: {fileID: 0}
    - target: {fileID: -6150491843757212119, guid: 3883a3f3524fd514c9f42771119891ef, type: 3}
      propertyPath: m_Bounds.m_Extent.y
      value: 0.27963006
      objectReference: {fileID: 0}
    - target: {fileID: -6150491843757212119, guid: 3883a3f3524fd514c9f42771119891ef, type: 3}
      propertyPath: m_Bounds.m_Extent.z
      value: 9.934545e-16
      objectReference: {fileID: 0}
    - target: {fileID: -6134090006306086822, guid: 3883a3f3524fd514c9f42771119891ef, type: 3}
      propertyPath: m_Materials.Array.data[0]
      value: 
      objectReference: {fileID: 10754, guid: 0000000000000000f000000000000000, type: 0}
    - target: {fileID: -6065224871635084580, guid: 3883a3f3524fd514c9f42771119891ef, type: 3}
      propertyPath: m_Materials.Array.data[0]
      value: 
      objectReference: {fileID: 10754, guid: 0000000000000000f000000000000000, type: 0}
    - target: {fileID: -5711171628044098564, guid: 3883a3f3524fd514c9f42771119891ef, type: 3}
      propertyPath: m_LocalPosition.x
      value: 0.569662
      objectReference: {fileID: 0}
    - target: {fileID: -5711171628044098564, guid: 3883a3f3524fd514c9f42771119891ef, type: 3}
      propertyPath: m_LocalPosition.y
      value: 5.221037
      objectReference: {fileID: 0}
    - target: {fileID: -5711171628044098564, guid: 3883a3f3524fd514c9f42771119891ef, type: 3}
      propertyPath: m_LocalRotation.w
      value: 0.6794496
      objectReference: {fileID: 0}
    - target: {fileID: -5711171628044098564, guid: 3883a3f3524fd514c9f42771119891ef, type: 3}
      propertyPath: m_LocalRotation.x
      value: 0
      objectReference: {fileID: 0}
    - target: {fileID: -5711171628044098564, guid: 3883a3f3524fd514c9f42771119891ef, type: 3}
      propertyPath: m_LocalRotation.y
      value: 0
      objectReference: {fileID: 0}
    - target: {fileID: -5711171628044098564, guid: 3883a3f3524fd514c9f42771119891ef, type: 3}
      propertyPath: m_LocalRotation.z
      value: 0.7337222
      objectReference: {fileID: 0}
    - target: {fileID: -5711171628044098564, guid: 3883a3f3524fd514c9f42771119891ef, type: 3}
      propertyPath: m_LocalEulerAnglesHint.z
      value: 0
      objectReference: {fileID: 0}
    - target: {fileID: -5627090654221575560, guid: 3883a3f3524fd514c9f42771119891ef, type: 3}
      propertyPath: m_Bounds.m_Center.x
      value: 0.43585038
      objectReference: {fileID: 0}
    - target: {fileID: -5627090654221575560, guid: 3883a3f3524fd514c9f42771119891ef, type: 3}
      propertyPath: m_Bounds.m_Center.y
      value: 2.4698455
      objectReference: {fileID: 0}
    - target: {fileID: -5627090654221575560, guid: 3883a3f3524fd514c9f42771119891ef, type: 3}
      propertyPath: m_Bounds.m_Center.z
      value: -0.02000001
      objectReference: {fileID: 0}
    - target: {fileID: -5627090654221575560, guid: 3883a3f3524fd514c9f42771119891ef, type: 3}
      propertyPath: m_Bounds.m_Extent.x
      value: 0.18740514
      objectReference: {fileID: 0}
    - target: {fileID: -5627090654221575560, guid: 3883a3f3524fd514c9f42771119891ef, type: 3}
      propertyPath: m_Bounds.m_Extent.y
      value: 0.7075598
      objectReference: {fileID: 0}
    - target: {fileID: -5544635544435183178, guid: 3883a3f3524fd514c9f42771119891ef, type: 3}
      propertyPath: m_LocalRotation.w
      value: 0.9946836
      objectReference: {fileID: 0}
    - target: {fileID: -5544635544435183178, guid: 3883a3f3524fd514c9f42771119891ef, type: 3}
      propertyPath: m_LocalRotation.x
      value: 0
      objectReference: {fileID: 0}
    - target: {fileID: -5544635544435183178, guid: 3883a3f3524fd514c9f42771119891ef, type: 3}
      propertyPath: m_LocalRotation.y
      value: 0
      objectReference: {fileID: 0}
    - target: {fileID: -5544635544435183178, guid: 3883a3f3524fd514c9f42771119891ef, type: 3}
      propertyPath: m_LocalRotation.z
      value: 0.102978915
      objectReference: {fileID: 0}
    - target: {fileID: -5544635544435183178, guid: 3883a3f3524fd514c9f42771119891ef, type: 3}
      propertyPath: m_LocalEulerAnglesHint.z
      value: 0
      objectReference: {fileID: 0}
    - target: {fileID: -5385963574563521568, guid: 3883a3f3524fd514c9f42771119891ef, type: 3}
      propertyPath: m_Bounds.m_Center.x
      value: 0.06335685
      objectReference: {fileID: 0}
    - target: {fileID: -5385963574563521568, guid: 3883a3f3524fd514c9f42771119891ef, type: 3}
      propertyPath: m_Bounds.m_Center.y
      value: -0.00048184395
      objectReference: {fileID: 0}
    - target: {fileID: -5385963574563521568, guid: 3883a3f3524fd514c9f42771119891ef, type: 3}
      propertyPath: m_Bounds.m_Center.z
      value: 1.8200055e-12
      objectReference: {fileID: 0}
    - target: {fileID: -5385963574563521568, guid: 3883a3f3524fd514c9f42771119891ef, type: 3}
      propertyPath: m_Bounds.m_Extent.x
      value: 0.4961552
      objectReference: {fileID: 0}
    - target: {fileID: -5385963574563521568, guid: 3883a3f3524fd514c9f42771119891ef, type: 3}
      propertyPath: m_Bounds.m_Extent.y
      value: 0.8650002
      objectReference: {fileID: 0}
    - target: {fileID: -5385963574563521568, guid: 3883a3f3524fd514c9f42771119891ef, type: 3}
      propertyPath: m_Bounds.m_Extent.z
      value: 6.1644754e-14
      objectReference: {fileID: 0}
    - target: {fileID: -5340447579245600375, guid: 3883a3f3524fd514c9f42771119891ef, type: 3}
      propertyPath: m_Materials.Array.data[0]
      value: 
      objectReference: {fileID: 10754, guid: 0000000000000000f000000000000000, type: 0}
    - target: {fileID: -4938690142767778157, guid: 3883a3f3524fd514c9f42771119891ef, type: 3}
      propertyPath: m_LocalPosition.x
      value: -0.30845645
      objectReference: {fileID: 0}
    - target: {fileID: -4938690142767778157, guid: 3883a3f3524fd514c9f42771119891ef, type: 3}
      propertyPath: m_LocalPosition.y
      value: -0.28270426
      objectReference: {fileID: 0}
    - target: {fileID: -4938690142767778157, guid: 3883a3f3524fd514c9f42771119891ef, type: 3}
      propertyPath: m_LocalRotation.w
      value: 0.0071783205
      objectReference: {fileID: 0}
    - target: {fileID: -4938690142767778157, guid: 3883a3f3524fd514c9f42771119891ef, type: 3}
      propertyPath: m_LocalRotation.x
      value: 0
      objectReference: {fileID: 0}
    - target: {fileID: -4938690142767778157, guid: 3883a3f3524fd514c9f42771119891ef, type: 3}
      propertyPath: m_LocalRotation.z
      value: 0.99997425
      objectReference: {fileID: 0}
    - target: {fileID: -4938690142767778157, guid: 3883a3f3524fd514c9f42771119891ef, type: 3}
      propertyPath: m_LocalEulerAnglesHint.z
      value: 0
      objectReference: {fileID: 0}
    - target: {fileID: -4838870040960289454, guid: 3883a3f3524fd514c9f42771119891ef, type: 3}
      propertyPath: m_Materials.Array.data[0]
      value: 
      objectReference: {fileID: 10754, guid: 0000000000000000f000000000000000, type: 0}
    - target: {fileID: -4402057532211301651, guid: 3883a3f3524fd514c9f42771119891ef, type: 3}
      propertyPath: m_Bounds.m_Center.x
      value: 0.284832
      objectReference: {fileID: 0}
    - target: {fileID: -4402057532211301651, guid: 3883a3f3524fd514c9f42771119891ef, type: 3}
      propertyPath: m_Bounds.m_Center.y
      value: 2.6121588
      objectReference: {fileID: 0}
    - target: {fileID: -4402057532211301651, guid: 3883a3f3524fd514c9f42771119891ef, type: 3}
      propertyPath: m_Bounds.m_Center.z
      value: 1.8189922e-12
      objectReference: {fileID: 0}
    - target: {fileID: -4402057532211301651, guid: 3883a3f3524fd514c9f42771119891ef, type: 3}
      propertyPath: m_Bounds.m_Extent.x
      value: 0.10000008
      objectReference: {fileID: 0}
    - target: {fileID: -4402057532211301651, guid: 3883a3f3524fd514c9f42771119891ef, type: 3}
      propertyPath: m_Bounds.m_Extent.y
      value: 0.06835997
      objectReference: {fileID: 0}
    - target: {fileID: -4402057532211301651, guid: 3883a3f3524fd514c9f42771119891ef, type: 3}
      propertyPath: m_Bounds.m_Extent.z
      value: 1.2137643e-16
      objectReference: {fileID: 0}
    - target: {fileID: -3948969204777825011, guid: 3883a3f3524fd514c9f42771119891ef, type: 3}
      propertyPath: m_Materials.Array.data[0]
      value: 
      objectReference: {fileID: 10754, guid: 0000000000000000f000000000000000, type: 0}
    - target: {fileID: -3627183469940704082, guid: 3883a3f3524fd514c9f42771119891ef, type: 3}
      propertyPath: m_Bounds.m_Center.x
      value: 0.2841101
      objectReference: {fileID: 0}
    - target: {fileID: -3627183469940704082, guid: 3883a3f3524fd514c9f42771119891ef, type: 3}
      propertyPath: m_Bounds.m_Center.y
      value: 2.608758
      objectReference: {fileID: 0}
    - target: {fileID: -3627183469940704082, guid: 3883a3f3524fd514c9f42771119891ef, type: 3}
      propertyPath: m_Bounds.m_Center.z
      value: 0.0100000035
      objectReference: {fileID: 0}
    - target: {fileID: -3627183469940704082, guid: 3883a3f3524fd514c9f42771119891ef, type: 3}
      propertyPath: m_Bounds.m_Extent.x
      value: 0.33664018
      objectReference: {fileID: 0}
    - target: {fileID: -3627183469940704082, guid: 3883a3f3524fd514c9f42771119891ef, type: 3}
      propertyPath: m_Bounds.m_Extent.y
      value: 0.70196044
      objectReference: {fileID: 0}
    - target: {fileID: -3459841908374383864, guid: 3883a3f3524fd514c9f42771119891ef, type: 3}
      propertyPath: m_Bounds.m_Center.x
      value: 0.28483012
      objectReference: {fileID: 0}
    - target: {fileID: -3459841908374383864, guid: 3883a3f3524fd514c9f42771119891ef, type: 3}
      propertyPath: m_Bounds.m_Center.y
      value: 2.6105037
      objectReference: {fileID: 0}
    - target: {fileID: -3459841908374383864, guid: 3883a3f3524fd514c9f42771119891ef, type: 3}
      propertyPath: m_Bounds.m_Center.z
      value: 1.8189894e-12
      objectReference: {fileID: 0}
    - target: {fileID: -3459841908374383864, guid: 3883a3f3524fd514c9f42771119891ef, type: 3}
      propertyPath: m_Bounds.m_Extent.x
      value: 0.2950002
      objectReference: {fileID: 0}
    - target: {fileID: -3459841908374383864, guid: 3883a3f3524fd514c9f42771119891ef, type: 3}
      propertyPath: m_Bounds.m_Extent.y
      value: 0.22998512
      objectReference: {fileID: 0}
    - target: {fileID: -3459841908374383864, guid: 3883a3f3524fd514c9f42771119891ef, type: 3}
      propertyPath: m_Bounds.m_Extent.z
      value: 8.1710897e-16
      objectReference: {fileID: 0}
    - target: {fileID: -2782641455496135260, guid: 3883a3f3524fd514c9f42771119891ef, type: 3}
      propertyPath: m_Materials.Array.data[0]
      value: 
      objectReference: {fileID: 10754, guid: 0000000000000000f000000000000000, type: 0}
    - target: {fileID: -2034795376780189052, guid: 3883a3f3524fd514c9f42771119891ef, type: 3}
      propertyPath: m_Materials.Array.data[0]
      value: 
      objectReference: {fileID: 10754, guid: 0000000000000000f000000000000000, type: 0}
    - target: {fileID: -1624497978848414783, guid: 3883a3f3524fd514c9f42771119891ef, type: 3}
      propertyPath: m_Bounds.m_Center.x
      value: 0.28764695
      objectReference: {fileID: 0}
    - target: {fileID: -1624497978848414783, guid: 3883a3f3524fd514c9f42771119891ef, type: 3}
      propertyPath: m_Bounds.m_Center.y
      value: 2.6105187
      objectReference: {fileID: 0}
    - target: {fileID: -1624497978848414783, guid: 3883a3f3524fd514c9f42771119891ef, type: 3}
      propertyPath: m_Bounds.m_Center.z
      value: -0.030000014
      objectReference: {fileID: 0}
    - target: {fileID: -1624497978848414783, guid: 3883a3f3524fd514c9f42771119891ef, type: 3}
      propertyPath: m_Bounds.m_Extent.x
      value: 0.13218522
      objectReference: {fileID: 0}
    - target: {fileID: -1499679946264205295, guid: 3883a3f3524fd514c9f42771119891ef, type: 3}
      propertyPath: m_Materials.Array.data[0]
      value: 
      objectReference: {fileID: 10754, guid: 0000000000000000f000000000000000, type: 0}
    - target: {fileID: -706186086411631328, guid: 3883a3f3524fd514c9f42771119891ef, type: 3}
      propertyPath: m_Bounds.m_Center.x
      value: 0.28452504
      objectReference: {fileID: 0}
    - target: {fileID: -706186086411631328, guid: 3883a3f3524fd514c9f42771119891ef, type: 3}
      propertyPath: m_Bounds.m_Center.y
      value: 2.6083436
      objectReference: {fileID: 0}
    - target: {fileID: -706186086411631328, guid: 3883a3f3524fd514c9f42771119891ef, type: 3}
      propertyPath: m_Bounds.m_Center.z
      value: 0.010000005
      objectReference: {fileID: 0}
    - target: {fileID: -706186086411631328, guid: 3883a3f3524fd514c9f42771119891ef, type: 3}
      propertyPath: m_Bounds.m_Extent.x
      value: 0.24690524
      objectReference: {fileID: 0}
    - target: {fileID: -706186086411631328, guid: 3883a3f3524fd514c9f42771119891ef, type: 3}
      propertyPath: m_Bounds.m_Extent.y
      value: 0.4178251
      objectReference: {fileID: 0}
    - target: {fileID: -126356064226044, guid: 3883a3f3524fd514c9f42771119891ef, type: 3}
      propertyPath: m_Materials.Array.data[0]
      value: 
      objectReference: {fileID: 10754, guid: 0000000000000000f000000000000000, type: 0}
    - target: {fileID: 348878798111656583, guid: 3883a3f3524fd514c9f42771119891ef, type: 3}
      propertyPath: m_Materials.Array.data[0]
      value: 
      objectReference: {fileID: 10754, guid: 0000000000000000f000000000000000, type: 0}
    - target: {fileID: 1046867844659787490, guid: 3883a3f3524fd514c9f42771119891ef, type: 3}
      propertyPath: m_LocalRotation.w
      value: 0.79256225
      objectReference: {fileID: 0}
    - target: {fileID: 1046867844659787490, guid: 3883a3f3524fd514c9f42771119891ef, type: 3}
      propertyPath: m_LocalRotation.x
      value: 0
      objectReference: {fileID: 0}
    - target: {fileID: 1046867844659787490, guid: 3883a3f3524fd514c9f42771119891ef, type: 3}
      propertyPath: m_LocalRotation.y
      value: 0
      objectReference: {fileID: 0}
    - target: {fileID: 1046867844659787490, guid: 3883a3f3524fd514c9f42771119891ef, type: 3}
      propertyPath: m_LocalRotation.z
      value: 0.60979104
      objectReference: {fileID: 0}
    - target: {fileID: 1046867844659787490, guid: 3883a3f3524fd514c9f42771119891ef, type: 3}
      propertyPath: m_LocalEulerAnglesHint.z
      value: 0
      objectReference: {fileID: 0}
    - target: {fileID: 1158564562909223219, guid: 3883a3f3524fd514c9f42771119891ef, type: 3}
      propertyPath: m_Bounds.m_Center.x
      value: 0.28288695
      objectReference: {fileID: 0}
    - target: {fileID: 1158564562909223219, guid: 3883a3f3524fd514c9f42771119891ef, type: 3}
      propertyPath: m_Bounds.m_Center.y
      value: 2.6105185
      objectReference: {fileID: 0}
    - target: {fileID: 1158564562909223219, guid: 3883a3f3524fd514c9f42771119891ef, type: 3}
      propertyPath: m_Bounds.m_Center.z
      value: 1.8189894e-12
      objectReference: {fileID: 0}
    - target: {fileID: 1158564562909223219, guid: 3883a3f3524fd514c9f42771119891ef, type: 3}
      propertyPath: m_Bounds.m_Extent.x
      value: 0.32301515
      objectReference: {fileID: 0}
    - target: {fileID: 1158564562909223219, guid: 3883a3f3524fd514c9f42771119891ef, type: 3}
      propertyPath: m_Bounds.m_Extent.y
      value: 0.23000002
      objectReference: {fileID: 0}
    - target: {fileID: 1158564562909223219, guid: 3883a3f3524fd514c9f42771119891ef, type: 3}
      propertyPath: m_Bounds.m_Extent.z
      value: 8.1710897e-16
      objectReference: {fileID: 0}
    - target: {fileID: 1166541863790902532, guid: 3883a3f3524fd514c9f42771119891ef, type: 3}
      propertyPath: m_LocalPosition.x
      value: -0.238
      objectReference: {fileID: 0}
    - target: {fileID: 1166541863790902532, guid: 3883a3f3524fd514c9f42771119891ef, type: 3}
      propertyPath: m_LocalPosition.y
      value: 5.796
      objectReference: {fileID: 0}
    - target: {fileID: 1166541863790902532, guid: 3883a3f3524fd514c9f42771119891ef, type: 3}
      propertyPath: m_LocalPosition.z
      value: 0
      objectReference: {fileID: 0}
    - target: {fileID: 1296932327501808893, guid: 3883a3f3524fd514c9f42771119891ef, type: 3}
      propertyPath: m_Materials.Array.data[0]
      value: 
      objectReference: {fileID: 10754, guid: 0000000000000000f000000000000000, type: 0}
    - target: {fileID: 1438579966144404394, guid: 3883a3f3524fd514c9f42771119891ef, type: 3}
      propertyPath: m_Bounds.m_Center.x
      value: 0.2848301
      objectReference: {fileID: 0}
    - target: {fileID: 1438579966144404394, guid: 3883a3f3524fd514c9f42771119891ef, type: 3}
      propertyPath: m_Bounds.m_Center.y
      value: 2.612719
      objectReference: {fileID: 0}
    - target: {fileID: 1438579966144404394, guid: 3883a3f3524fd514c9f42771119891ef, type: 3}
      propertyPath: m_Bounds.m_Center.z
      value: 1.8189933e-12
      objectReference: {fileID: 0}
    - target: {fileID: 1438579966144404394, guid: 3883a3f3524fd514c9f42771119891ef, type: 3}
      propertyPath: m_Bounds.m_Extent.x
      value: 0.31500024
      objectReference: {fileID: 0}
    - target: {fileID: 1438579966144404394, guid: 3883a3f3524fd514c9f42771119891ef, type: 3}
      propertyPath: m_Bounds.m_Extent.y
      value: 0.36001003
      objectReference: {fileID: 0}
    - target: {fileID: 1438579966144404394, guid: 3883a3f3524fd514c9f42771119891ef, type: 3}
      propertyPath: m_Bounds.m_Extent.z
      value: 6.3946244e-16
      objectReference: {fileID: 0}
    - target: {fileID: 1644695795185204205, guid: 3883a3f3524fd514c9f42771119891ef, type: 3}
      propertyPath: m_LocalRotation.w
      value: 0.9867323
      objectReference: {fileID: 0}
    - target: {fileID: 1644695795185204205, guid: 3883a3f3524fd514c9f42771119891ef, type: 3}
      propertyPath: m_LocalRotation.x
      value: 0
      objectReference: {fileID: 0}
    - target: {fileID: 1644695795185204205, guid: 3883a3f3524fd514c9f42771119891ef, type: 3}
      propertyPath: m_LocalRotation.y
      value: 0
      objectReference: {fileID: 0}
    - target: {fileID: 1644695795185204205, guid: 3883a3f3524fd514c9f42771119891ef, type: 3}
      propertyPath: m_LocalRotation.z
      value: 0.16235574
      objectReference: {fileID: 0}
    - target: {fileID: 1644695795185204205, guid: 3883a3f3524fd514c9f42771119891ef, type: 3}
      propertyPath: m_LocalEulerAnglesHint.z
      value: 0
      objectReference: {fileID: 0}
    - target: {fileID: 1699724842353631087, guid: 3883a3f3524fd514c9f42771119891ef, type: 3}
      propertyPath: m_RootOrder
      value: 0
      objectReference: {fileID: 0}
    - target: {fileID: 1699724842353631087, guid: 3883a3f3524fd514c9f42771119891ef, type: 3}
      propertyPath: m_LocalPosition.x
      value: 0
      objectReference: {fileID: 0}
    - target: {fileID: 1699724842353631087, guid: 3883a3f3524fd514c9f42771119891ef, type: 3}
      propertyPath: m_LocalPosition.y
      value: 0
      objectReference: {fileID: 0}
    - target: {fileID: 1699724842353631087, guid: 3883a3f3524fd514c9f42771119891ef, type: 3}
      propertyPath: m_LocalPosition.z
      value: 0
      objectReference: {fileID: 0}
    - target: {fileID: 1699724842353631087, guid: 3883a3f3524fd514c9f42771119891ef, type: 3}
      propertyPath: m_LocalRotation.w
      value: 1
      objectReference: {fileID: 0}
    - target: {fileID: 1699724842353631087, guid: 3883a3f3524fd514c9f42771119891ef, type: 3}
      propertyPath: m_LocalRotation.x
      value: 0
      objectReference: {fileID: 0}
    - target: {fileID: 1699724842353631087, guid: 3883a3f3524fd514c9f42771119891ef, type: 3}
      propertyPath: m_LocalRotation.y
      value: 0
      objectReference: {fileID: 0}
    - target: {fileID: 1699724842353631087, guid: 3883a3f3524fd514c9f42771119891ef, type: 3}
      propertyPath: m_LocalRotation.z
      value: 0
      objectReference: {fileID: 0}
    - target: {fileID: 1699724842353631087, guid: 3883a3f3524fd514c9f42771119891ef, type: 3}
      propertyPath: m_LocalEulerAnglesHint.x
      value: 0
      objectReference: {fileID: 0}
    - target: {fileID: 1699724842353631087, guid: 3883a3f3524fd514c9f42771119891ef, type: 3}
      propertyPath: m_LocalEulerAnglesHint.y
      value: 0
      objectReference: {fileID: 0}
    - target: {fileID: 1699724842353631087, guid: 3883a3f3524fd514c9f42771119891ef, type: 3}
      propertyPath: m_LocalEulerAnglesHint.z
      value: 0
      objectReference: {fileID: 0}
    - target: {fileID: 1762302581310758904, guid: 3883a3f3524fd514c9f42771119891ef, type: 3}
      propertyPath: m_LocalRotation.w
      value: 0.02290247
      objectReference: {fileID: 0}
    - target: {fileID: 1762302581310758904, guid: 3883a3f3524fd514c9f42771119891ef, type: 3}
      propertyPath: m_LocalRotation.x
      value: 0
      objectReference: {fileID: 0}
    - target: {fileID: 1762302581310758904, guid: 3883a3f3524fd514c9f42771119891ef, type: 3}
      propertyPath: m_LocalRotation.z
      value: -0.99973774
      objectReference: {fileID: 0}
    - target: {fileID: 1762302581310758904, guid: 3883a3f3524fd514c9f42771119891ef, type: 3}
      propertyPath: m_LocalEulerAnglesHint.z
      value: 0
      objectReference: {fileID: 0}
    - target: {fileID: 2109854720332326499, guid: 3883a3f3524fd514c9f42771119891ef, type: 3}
      propertyPath: m_LocalRotation.w
      value: 0.99963266
      objectReference: {fileID: 0}
    - target: {fileID: 2109854720332326499, guid: 3883a3f3524fd514c9f42771119891ef, type: 3}
      propertyPath: m_LocalRotation.x
      value: 0
      objectReference: {fileID: 0}
    - target: {fileID: 2109854720332326499, guid: 3883a3f3524fd514c9f42771119891ef, type: 3}
      propertyPath: m_LocalRotation.y
      value: 0
      objectReference: {fileID: 0}
    - target: {fileID: 2109854720332326499, guid: 3883a3f3524fd514c9f42771119891ef, type: 3}
      propertyPath: m_LocalRotation.z
      value: -0.02710401
      objectReference: {fileID: 0}
    - target: {fileID: 2109854720332326499, guid: 3883a3f3524fd514c9f42771119891ef, type: 3}
      propertyPath: m_LocalEulerAnglesHint.z
      value: 0
      objectReference: {fileID: 0}
    - target: {fileID: 2541530548840527137, guid: 3883a3f3524fd514c9f42771119891ef, type: 3}
      propertyPath: m_LocalRotation.w
      value: 0.9964517
      objectReference: {fileID: 0}
    - target: {fileID: 2541530548840527137, guid: 3883a3f3524fd514c9f42771119891ef, type: 3}
      propertyPath: m_LocalRotation.x
      value: 0
      objectReference: {fileID: 0}
    - target: {fileID: 2541530548840527137, guid: 3883a3f3524fd514c9f42771119891ef, type: 3}
      propertyPath: m_LocalRotation.y
      value: 0
      objectReference: {fileID: 0}
    - target: {fileID: 2541530548840527137, guid: 3883a3f3524fd514c9f42771119891ef, type: 3}
      propertyPath: m_LocalRotation.z
      value: -0.08416733
      objectReference: {fileID: 0}
    - target: {fileID: 2541530548840527137, guid: 3883a3f3524fd514c9f42771119891ef, type: 3}
      propertyPath: m_LocalEulerAnglesHint.z
      value: 0
      objectReference: {fileID: 0}
    - target: {fileID: 2668046237066635524, guid: 3883a3f3524fd514c9f42771119891ef, type: 3}
      propertyPath: m_LocalRotation.w
      value: 0.20498559
      objectReference: {fileID: 0}
    - target: {fileID: 2668046237066635524, guid: 3883a3f3524fd514c9f42771119891ef, type: 3}
      propertyPath: m_LocalRotation.x
      value: 0
      objectReference: {fileID: 0}
    - target: {fileID: 2668046237066635524, guid: 3883a3f3524fd514c9f42771119891ef, type: 3}
      propertyPath: m_LocalRotation.z
      value: 0.978765
      objectReference: {fileID: 0}
    - target: {fileID: 2668046237066635524, guid: 3883a3f3524fd514c9f42771119891ef, type: 3}
      propertyPath: m_LocalEulerAnglesHint.z
      value: 0
      objectReference: {fileID: 0}
    - target: {fileID: 3059119854930304606, guid: 3883a3f3524fd514c9f42771119891ef, type: 3}
      propertyPath: m_Materials.Array.data[0]
      value: 
      objectReference: {fileID: 10754, guid: 0000000000000000f000000000000000, type: 0}
    - target: {fileID: 3307986096790379587, guid: 3883a3f3524fd514c9f42771119891ef, type: 3}
      propertyPath: m_Materials.Array.data[0]
      value: 
      objectReference: {fileID: 10754, guid: 0000000000000000f000000000000000, type: 0}
    - target: {fileID: 4105035553035731884, guid: 3883a3f3524fd514c9f42771119891ef, type: 3}
      propertyPath: m_LocalRotation.w
      value: 0.995633
      objectReference: {fileID: 0}
    - target: {fileID: 4105035553035731884, guid: 3883a3f3524fd514c9f42771119891ef, type: 3}
      propertyPath: m_LocalRotation.x
      value: 0
      objectReference: {fileID: 0}
    - target: {fileID: 4105035553035731884, guid: 3883a3f3524fd514c9f42771119891ef, type: 3}
      propertyPath: m_LocalRotation.y
      value: 0
      objectReference: {fileID: 0}
    - target: {fileID: 4105035553035731884, guid: 3883a3f3524fd514c9f42771119891ef, type: 3}
      propertyPath: m_LocalRotation.z
      value: -0.09335339
      objectReference: {fileID: 0}
    - target: {fileID: 4105035553035731884, guid: 3883a3f3524fd514c9f42771119891ef, type: 3}
      propertyPath: m_LocalEulerAnglesHint.z
      value: 0
      objectReference: {fileID: 0}
    - target: {fileID: 4538017577690036918, guid: 3883a3f3524fd514c9f42771119891ef, type: 3}
      propertyPath: m_LocalRotation.w
      value: 0.9999876
      objectReference: {fileID: 0}
    - target: {fileID: 4538017577690036918, guid: 3883a3f3524fd514c9f42771119891ef, type: 3}
      propertyPath: m_LocalRotation.x
      value: 0
      objectReference: {fileID: 0}
    - target: {fileID: 4538017577690036918, guid: 3883a3f3524fd514c9f42771119891ef, type: 3}
      propertyPath: m_LocalRotation.y
      value: 0
      objectReference: {fileID: 0}
    - target: {fileID: 4538017577690036918, guid: 3883a3f3524fd514c9f42771119891ef, type: 3}
      propertyPath: m_LocalRotation.z
      value: 0.004985493
      objectReference: {fileID: 0}
    - target: {fileID: 4538017577690036918, guid: 3883a3f3524fd514c9f42771119891ef, type: 3}
      propertyPath: m_LocalEulerAnglesHint.z
      value: 0
      objectReference: {fileID: 0}
    - target: {fileID: 4599407829968268720, guid: 3883a3f3524fd514c9f42771119891ef, type: 3}
      propertyPath: m_Bounds.m_Center.x
      value: 0.284832
      objectReference: {fileID: 0}
    - target: {fileID: 4599407829968268720, guid: 3883a3f3524fd514c9f42771119891ef, type: 3}
      propertyPath: m_Bounds.m_Center.y
      value: 2.6133986
      objectReference: {fileID: 0}
    - target: {fileID: 4599407829968268720, guid: 3883a3f3524fd514c9f42771119891ef, type: 3}
      propertyPath: m_Bounds.m_Center.z
      value: 0.020000009
      objectReference: {fileID: 0}
    - target: {fileID: 4599407829968268720, guid: 3883a3f3524fd514c9f42771119891ef, type: 3}
      propertyPath: m_Bounds.m_Extent.x
      value: 0.3300001
      objectReference: {fileID: 0}
    - target: {fileID: 4599407829968268720, guid: 3883a3f3524fd514c9f42771119891ef, type: 3}
      propertyPath: m_Bounds.m_Extent.y
      value: 0.6792501
      objectReference: {fileID: 0}
    - target: {fileID: 5425390610318150022, guid: 3883a3f3524fd514c9f42771119891ef, type: 3}
      propertyPath: m_Materials.Array.data[0]
      value: 
      objectReference: {fileID: 10754, guid: 0000000000000000f000000000000000, type: 0}
    - target: {fileID: 5724225614721714743, guid: 3883a3f3524fd514c9f42771119891ef, type: 3}
      propertyPath: m_Bounds.m_Center.x
      value: 0.28488016
      objectReference: {fileID: 0}
    - target: {fileID: 5724225614721714743, guid: 3883a3f3524fd514c9f42771119891ef, type: 3}
      propertyPath: m_Bounds.m_Center.y
      value: 2.6105182
      objectReference: {fileID: 0}
    - target: {fileID: 5724225614721714743, guid: 3883a3f3524fd514c9f42771119891ef, type: 3}
      propertyPath: m_Bounds.m_Center.z
      value: 0.030000012
      objectReference: {fileID: 0}
    - target: {fileID: 5724225614721714743, guid: 3883a3f3524fd514c9f42771119891ef, type: 3}
      propertyPath: m_Bounds.m_Extent.x
      value: 0.15742019
      objectReference: {fileID: 0}
    - target: {fileID: 5724225614721714743, guid: 3883a3f3524fd514c9f42771119891ef, type: 3}
      propertyPath: m_Bounds.m_Extent.y
      value: 0.27999997
      objectReference: {fileID: 0}
    - target: {fileID: 5810354305847907443, guid: 3883a3f3524fd514c9f42771119891ef, type: 3}
      propertyPath: m_Materials.Array.data[0]
      value: 
      objectReference: {fileID: 10754, guid: 0000000000000000f000000000000000, type: 0}
    - target: {fileID: 5917937631763281111, guid: 3883a3f3524fd514c9f42771119891ef, type: 3}
      propertyPath: m_Bounds.m_Center.x
      value: 0.28483707
      objectReference: {fileID: 0}
    - target: {fileID: 5917937631763281111, guid: 3883a3f3524fd514c9f42771119891ef, type: 3}
      propertyPath: m_Bounds.m_Center.y
      value: 2.6146038
      objectReference: {fileID: 0}
    - target: {fileID: 5917937631763281111, guid: 3883a3f3524fd514c9f42771119891ef, type: 3}
      propertyPath: m_Bounds.m_Center.z
      value: -0.0100000035
      objectReference: {fileID: 0}
    - target: {fileID: 5917937631763281111, guid: 3883a3f3524fd514c9f42771119891ef, type: 3}
      propertyPath: m_Bounds.m_Extent.x
      value: 0.15499511
      objectReference: {fileID: 0}
    - target: {fileID: 5917937631763281111, guid: 3883a3f3524fd514c9f42771119891ef, type: 3}
      propertyPath: m_Bounds.m_Extent.y
      value: 0.40091515
      objectReference: {fileID: 0}
    - target: {fileID: 6135648266287015362, guid: 3883a3f3524fd514c9f42771119891ef, type: 3}
      propertyPath: m_Materials.Array.data[0]
      value: 
      objectReference: {fileID: 10754, guid: 0000000000000000f000000000000000, type: 0}
    - target: {fileID: 6196809921725974755, guid: 3883a3f3524fd514c9f42771119891ef, type: 3}
      propertyPath: m_Bounds.m_Center.x
      value: 0.28455704
      objectReference: {fileID: 0}
    - target: {fileID: 6196809921725974755, guid: 3883a3f3524fd514c9f42771119891ef, type: 3}
      propertyPath: m_Bounds.m_Center.y
      value: 2.6097834
      objectReference: {fileID: 0}
    - target: {fileID: 6196809921725974755, guid: 3883a3f3524fd514c9f42771119891ef, type: 3}
      propertyPath: m_Bounds.m_Center.z
      value: 1.8291787e-12
      objectReference: {fileID: 0}
    - target: {fileID: 6196809921725974755, guid: 3883a3f3524fd514c9f42771119891ef, type: 3}
      propertyPath: m_Bounds.m_Extent.x
      value: 0.31972525
      objectReference: {fileID: 0}
    - target: {fileID: 6196809921725974755, guid: 3883a3f3524fd514c9f42771119891ef, type: 3}
      propertyPath: m_Bounds.m_Extent.y
      value: 0.18881512
      objectReference: {fileID: 0}
    - target: {fileID: 6196809921725974755, guid: 3883a3f3524fd514c9f42771119891ef, type: 3}
      propertyPath: m_Bounds.m_Extent.z
      value: 2.5303327e-14
      objectReference: {fileID: 0}
    - target: {fileID: 6399436762136347439, guid: 3883a3f3524fd514c9f42771119891ef, type: 3}
      propertyPath: m_LocalRotation.w
      value: 0.8203551
      objectReference: {fileID: 0}
    - target: {fileID: 6399436762136347439, guid: 3883a3f3524fd514c9f42771119891ef, type: 3}
      propertyPath: m_LocalRotation.x
      value: 0
      objectReference: {fileID: 0}
    - target: {fileID: 6399436762136347439, guid: 3883a3f3524fd514c9f42771119891ef, type: 3}
      propertyPath: m_LocalRotation.y
      value: 0
      objectReference: {fileID: 0}
    - target: {fileID: 6399436762136347439, guid: 3883a3f3524fd514c9f42771119891ef, type: 3}
      propertyPath: m_LocalRotation.z
      value: 0.5718544
      objectReference: {fileID: 0}
    - target: {fileID: 6399436762136347439, guid: 3883a3f3524fd514c9f42771119891ef, type: 3}
      propertyPath: m_LocalEulerAnglesHint.z
      value: 0
      objectReference: {fileID: 0}
    - target: {fileID: 6722997122968585797, guid: 3883a3f3524fd514c9f42771119891ef, type: 3}
      propertyPath: m_Bounds.m_Center.x
      value: 0.43832344
      objectReference: {fileID: 0}
    - target: {fileID: 6722997122968585797, guid: 3883a3f3524fd514c9f42771119891ef, type: 3}
      propertyPath: m_Bounds.m_Center.y
      value: 2.4675856
      objectReference: {fileID: 0}
    - target: {fileID: 6722997122968585797, guid: 3883a3f3524fd514c9f42771119891ef, type: 3}
      propertyPath: m_Bounds.m_Center.z
      value: -0.010000005
      objectReference: {fileID: 0}
    - target: {fileID: 6722997122968585797, guid: 3883a3f3524fd514c9f42771119891ef, type: 3}
      propertyPath: m_Bounds.m_Extent.x
      value: 0.26919037
      objectReference: {fileID: 0}
    - target: {fileID: 6722997122968585797, guid: 3883a3f3524fd514c9f42771119891ef, type: 3}
      propertyPath: m_Bounds.m_Extent.y
      value: 0.77500033
      objectReference: {fileID: 0}
    - target: {fileID: 6755778566627953803, guid: 3883a3f3524fd514c9f42771119891ef, type: 3}
      propertyPath: m_Materials.Array.data[0]
      value: 
      objectReference: {fileID: 10754, guid: 0000000000000000f000000000000000, type: 0}
    - target: {fileID: 6854763434328846274, guid: 3883a3f3524fd514c9f42771119891ef, type: 3}
      propertyPath: m_Materials.Array.data[0]
      value: 
      objectReference: {fileID: 10754, guid: 0000000000000000f000000000000000, type: 0}
    - target: {fileID: 6947543090315158802, guid: 3883a3f3524fd514c9f42771119891ef, type: 3}
      propertyPath: m_Bounds.m_Center.x
      value: 0.2839368
      objectReference: {fileID: 0}
    - target: {fileID: 6947543090315158802, guid: 3883a3f3524fd514c9f42771119891ef, type: 3}
      propertyPath: m_Bounds.m_Center.y
      value: 2.6122885
      objectReference: {fileID: 0}
    - target: {fileID: 6947543090315158802, guid: 3883a3f3524fd514c9f42771119891ef, type: 3}
      propertyPath: m_Bounds.m_Center.z
      value: 0.020000009
      objectReference: {fileID: 0}
    - target: {fileID: 6947543090315158802, guid: 3883a3f3524fd514c9f42771119891ef, type: 3}
      propertyPath: m_Bounds.m_Extent.x
      value: 0.16410504
      objectReference: {fileID: 0}
    - target: {fileID: 6947543090315158802, guid: 3883a3f3524fd514c9f42771119891ef, type: 3}
      propertyPath: m_Bounds.m_Extent.y
      value: 0.3427601
      objectReference: {fileID: 0}
    - target: {fileID: 7601586528907162936, guid: 3883a3f3524fd514c9f42771119891ef, type: 3}
      propertyPath: m_Materials.Array.data[0]
      value: 
      objectReference: {fileID: 10754, guid: 0000000000000000f000000000000000, type: 0}
    - target: {fileID: 7670305091672983359, guid: 3883a3f3524fd514c9f42771119891ef, type: 3}
      propertyPath: m_Bounds.m_Center.x
      value: 0.27662504
      objectReference: {fileID: 0}
    - target: {fileID: 7670305091672983359, guid: 3883a3f3524fd514c9f42771119891ef, type: 3}
      propertyPath: m_Bounds.m_Center.y
      value: 2.6105182
      objectReference: {fileID: 0}
    - target: {fileID: 7670305091672983359, guid: 3883a3f3524fd514c9f42771119891ef, type: 3}
      propertyPath: m_Bounds.m_Center.z
      value: 0.030000014
      objectReference: {fileID: 0}
    - target: {fileID: 7670305091672983359, guid: 3883a3f3524fd514c9f42771119891ef, type: 3}
      propertyPath: m_Bounds.m_Extent.x
      value: 0.29679513
      objectReference: {fileID: 0}
    - target: {fileID: 7670305091672983359, guid: 3883a3f3524fd514c9f42771119891ef, type: 3}
      propertyPath: m_Bounds.m_Extent.y
      value: 0.2550001
      objectReference: {fileID: 0}
    - target: {fileID: 7694305841096165630, guid: 3883a3f3524fd514c9f42771119891ef, type: 3}
      propertyPath: m_LocalRotation.w
      value: 0.98236334
      objectReference: {fileID: 0}
    - target: {fileID: 7694305841096165630, guid: 3883a3f3524fd514c9f42771119891ef, type: 3}
      propertyPath: m_LocalRotation.x
      value: 0
      objectReference: {fileID: 0}
    - target: {fileID: 7694305841096165630, guid: 3883a3f3524fd514c9f42771119891ef, type: 3}
      propertyPath: m_LocalRotation.y
      value: 0
      objectReference: {fileID: 0}
    - target: {fileID: 7694305841096165630, guid: 3883a3f3524fd514c9f42771119891ef, type: 3}
      propertyPath: m_LocalRotation.z
      value: 0.18698192
      objectReference: {fileID: 0}
    - target: {fileID: 7694305841096165630, guid: 3883a3f3524fd514c9f42771119891ef, type: 3}
      propertyPath: m_LocalEulerAnglesHint.z
      value: 0
      objectReference: {fileID: 0}
    - target: {fileID: 7968280220507811376, guid: 3883a3f3524fd514c9f42771119891ef, type: 3}
      propertyPath: m_Bounds.m_Center.x
      value: 0.2848301
      objectReference: {fileID: 0}
    - target: {fileID: 7968280220507811376, guid: 3883a3f3524fd514c9f42771119891ef, type: 3}
      propertyPath: m_Bounds.m_Center.y
      value: 2.6105192
      objectReference: {fileID: 0}
    - target: {fileID: 7968280220507811376, guid: 3883a3f3524fd514c9f42771119891ef, type: 3}
      propertyPath: m_Bounds.m_Center.z
      value: 1.8189894e-12
      objectReference: {fileID: 0}
    - target: {fileID: 7968280220507811376, guid: 3883a3f3524fd514c9f42771119891ef, type: 3}
      propertyPath: m_Bounds.m_Extent.x
      value: 0.05000004
      objectReference: {fileID: 0}
    - target: {fileID: 7968280220507811376, guid: 3883a3f3524fd514c9f42771119891ef, type: 3}
      propertyPath: m_Bounds.m_Extent.y
      value: 0.025000095
      objectReference: {fileID: 0}
    - target: {fileID: 7968280220507811376, guid: 3883a3f3524fd514c9f42771119891ef, type: 3}
      propertyPath: m_Bounds.m_Extent.z
      value: 4.445229e-17
      objectReference: {fileID: 0}
    - target: {fileID: 8494230209540378059, guid: 3883a3f3524fd514c9f42771119891ef, type: 3}
      propertyPath: m_Bounds.m_Center.x
      value: 0.2872301
      objectReference: {fileID: 0}
    - target: {fileID: 8494230209540378059, guid: 3883a3f3524fd514c9f42771119891ef, type: 3}
      propertyPath: m_Bounds.m_Center.y
      value: 2.610519
      objectReference: {fileID: 0}
    - target: {fileID: 8494230209540378059, guid: 3883a3f3524fd514c9f42771119891ef, type: 3}
      propertyPath: m_Bounds.m_Center.z
      value: -0.020000007
      objectReference: {fileID: 0}
    - target: {fileID: 8494230209540378059, guid: 3883a3f3524fd514c9f42771119891ef, type: 3}
      propertyPath: m_Bounds.m_Extent.x
      value: 0.22260037
      objectReference: {fileID: 0}
    - target: {fileID: 8494230209540378059, guid: 3883a3f3524fd514c9f42771119891ef, type: 3}
      propertyPath: m_Bounds.m_Extent.y
      value: 0.29499996
      objectReference: {fileID: 0}
    - target: {fileID: 9185973558099786430, guid: 3883a3f3524fd514c9f42771119891ef, type: 3}
      propertyPath: m_Name
      value: Surtr visual
      objectReference: {fileID: 0}
    m_RemovedComponents: []
  m_SourcePrefab: {fileID: -6533934513815095989, guid: 3883a3f3524fd514c9f42771119891ef, type: 3}
--- !u!1 &1419784897580123576 stripped
GameObject:
  m_CorrespondingSourceObject: {fileID: 9185973558099786430, guid: 3883a3f3524fd514c9f42771119891ef, type: 3}
  m_PrefabInstance: {fileID: 7840543336247164678}
  m_PrefabAsset: {fileID: 0}
--- !u!95 &1568955889
Animator:
  serializedVersion: 3
  m_ObjectHideFlags: 0
  m_CorrespondingSourceObject: {fileID: 0}
  m_PrefabInstance: {fileID: 0}
  m_PrefabAsset: {fileID: 0}
  m_GameObject: {fileID: 1419784897580123576}
  m_Enabled: 1
  m_Avatar: {fileID: 0}
  m_Controller: {fileID: 9100000, guid: 301ae16f717835849b00c6556f0e5695, type: 2}
  m_CullingMode: 0
  m_UpdateMode: 0
  m_ApplyRootMotion: 0
  m_LinearVelocityBlending: 0
  m_WarningMessage: 
  m_HasTransformHierarchy: 1
  m_AllowConstantClipSamplingOptimization: 1
  m_KeepAnimatorControllerStateOnDisable: 0
