%YAML 1.1
%TAG !u! tag:unity3d.com,2011:
--- !u!114 &11400000
MonoBehaviour:
  m_ObjectHideFlags: 0
  m_CorrespondingSourceObject: {fileID: 0}
  m_PrefabInstance: {fileID: 0}
  m_PrefabAsset: {fileID: 0}
  m_GameObject: {fileID: 0}
  m_Enabled: 1
  m_EditorHideFlags: 0
  m_Script: {fileID: 11500000, guid: e3c3cb5d5a8524e48875cf8bd7efd534, type: 3}
  m_Name: Ending - 0
  m_EditorClassIdentifier: 
  dialogs:
  - subject: 1
    line: "... This is it. That\u2019s the last of them."
  - subject: 1
    line: "With this, you\u2019ll be able to see the next truth."
  - subject: 0
    line: I hope so.
  - subject: 1
    line: ... Surtr. May I ask a question before I see your memory?
  - subject: 0
    line: Sure, what do you want to know?
  - subject: 1
    line: "You\u2019re not scared of what comes next?"
  - subject: 0
    line: ...Not really.
  - subject: 0
    line: "I have nothing to lose. My daughter is dead, I got estranged by my own
      brethrens\u2026 What else do I have, other than my own life? And maybe you."
  - subject: 1
    line: ... Somehow hearing all of those from your mouth, sounds sadder than it
      should.
  - subject: 1
    line: This time, I let you see your own memory along with me. You collect enough
      of the lanterns to allow you to see through your own eyes.
  - subject: 0
    line: ...Okay. Ready, whenever you are.
  - subject: 1
    line: Surtr, let me tell you once again.
  - subject: 1
    line: Trust me.
  - subject: 1
    line: ...Trust me that I have my own reason too.
