%YAML 1.1
%TAG !u! tag:unity3d.com,2011:
--- !u!114 &11400000
MonoBehaviour:
  m_ObjectHideFlags: 0
  m_CorrespondingSourceObject: {fileID: 0}
  m_PrefabInstance: {fileID: 0}
  m_PrefabAsset: {fileID: 0}
  m_GameObject: {fileID: 0}
  m_Enabled: 1
  m_EditorHideFlags: 0
  m_Script: {fileID: 11500000, guid: e3c3cb5d5a8524e48875cf8bd7efd534, type: 3}
  m_Name: Ending - 1
  m_EditorClassIdentifier: 
  dialogs:
  - subject: 0
    line: Amidst the ashes and soots, I see a figure, standing at the end of the
      hallway with the core of a fire elemental in her hand.
  - subject: 0
    line: The girl looks like someone I know. Blue robes touching the bare floor,
      long blond hair, blue eyes...
  - subject: 0
    line: "... It\u2019s none other than Freyja herself...?"
  - subject: 0
    line: But... Freyja... That makes you the murderer... How could you?
