%YAML 1.1
%TAG !u! tag:unity3d.com,2011:
--- !u!114 &11400000
MonoBehaviour:
  m_ObjectHideFlags: 0
  m_CorrespondingSourceObject: {fileID: 0}
  m_PrefabInstance: {fileID: 0}
  m_PrefabAsset: {fileID: 0}
  m_GameObject: {fileID: 0}
  m_Enabled: 1
  m_EditorHideFlags: 0
  m_Script: {fileID: 11500000, guid: e3c3cb5d5a8524e48875cf8bd7efd534, type: 3}
  m_Name: Prolog - 1
  m_EditorClassIdentifier: 
  id: prolog 1
  dialogs:
  - subject: 0
    line: "...That\u2019s about it. They must\u2019ve thrown me here right after
      they say that I am responsible for this whole mess."
  - subject: 1
    line: That sounds terrible.
  - subject: 0
    line: "...No. It\u2019s not the worst. The worst is that the judges believed
      I did it. They believed I was responsible for killing my own daughter, my own
      baby."
  - subject: 1
    line: "Well... From what I saw from your memories, the judges consisted of
      other elementals instead of your own brethrens\u2014 That\u2019s not fair!"
  - subject: 0
    line: "I... Actually forgot about that."
  - subject: 0
    line: Though, it would be nice to ask first before prying into my memories, Freyja.
  - subject: 0
    line: As much as I am thankful for all of your help, that does not mean you have
      the permission to do so.
  - subject: 1
    line: "Oh! Um, Sorry... It just happens that you have one of my lanterns..."
  - subject: 1
    line: "With those lanterns, I can tap into the memories of those who have it...
      You were thinking about a strong memory so... the lantern reacted to it and
      let me read your memory."
  - subject: 1
    line: "Whether or not I want to read it or not, if you remember strongly to a
      certain memory... I\u2019m afraid I can\u2019t do much to stop it. I forgot
      to mention that to you before you talked about the past... Again, sorry."
  - subject: 0
    line: "It\u2019s fine. I\u2019ll refrain from reminiscing too much. Just...
      Ask for permission next time."
  - subject: 1
    line: "But you did say you don\u2019t remember what happened, didn\u2019t you?
      What if I can help you recall your memories? I can also help you find a way
      out from here!"
  - subject: 1
    line: After that, you could find the actual murderer!
  - subject: 0
    line: "...That doesn\u2019t sound like a bad idea. Let\u2019s give it a try
      then. How do I do that, Freyja?"
  - subject: 1
    line: Through my lost lanterns. They are scattered throughout this tundra. Find
      enough of them and I can use them to pry open your memories so you know what
      exactly happened back then.
  - subject: 0
    line: "...By the tone of your words, I assume you would not be following me
      into the wilderness."
  - subject: 1
    line: "I have to stay here! I can\u2019t explain it to you yet but if I go with
      you... I doubt I\u2019ll be any help anyway."
  - subject: 1
    line: "Trust me, Surtr. You don\u2019t really want me to come with you."
  - subject: 0
    line: "... Okay. Though, promise me that you will help me until the end. Until
      I find the truth behind my daughter\u2019s death."
  - subject: 1
    line: You have my word. Now, go!
